%YAML 1.1
%TAG !u! tag:unity3d.com,2011:
--- !u!1001 &4518665148080540341
PrefabInstance:
  m_ObjectHideFlags: 0
  serializedVersion: 2
  m_Modification:
    m_TransformParent: {fileID: 0}
    m_Modifications:
    - target: {fileID: 1907986506048721031, guid: e98a186570977734eb5da477892cd317,
        type: 3}
      propertyPath: m_Materials.Array.data[2]
      value: 
      objectReference: {fileID: 2100000, guid: 79bbb0b25ec8c86478fa7d185dedac25, type: 2}
    - target: {fileID: 1907986506050490983, guid: e98a186570977734eb5da477892cd317,
        type: 3}
      propertyPath: m_RootOrder
      value: 0
      objectReference: {fileID: 0}
    - target: {fileID: 1907986506050490983, guid: e98a186570977734eb5da477892cd317,
        type: 3}
      propertyPath: m_LocalPosition.x
      value: 0
      objectReference: {fileID: 0}
    - target: {fileID: 1907986506050490983, guid: e98a186570977734eb5da477892cd317,
        type: 3}
      propertyPath: m_LocalPosition.y
      value: 0
      objectReference: {fileID: 0}
    - target: {fileID: 1907986506050490983, guid: e98a186570977734eb5da477892cd317,
        type: 3}
      propertyPath: m_LocalPosition.z
      value: 0
      objectReference: {fileID: 0}
    - target: {fileID: 1907986506050490983, guid: e98a186570977734eb5da477892cd317,
        type: 3}
      propertyPath: m_LocalRotation.w
      value: 1
      objectReference: {fileID: 0}
    - target: {fileID: 1907986506050490983, guid: e98a186570977734eb5da477892cd317,
        type: 3}
      propertyPath: m_LocalRotation.x
      value: 0
      objectReference: {fileID: 0}
    - target: {fileID: 1907986506050490983, guid: e98a186570977734eb5da477892cd317,
        type: 3}
      propertyPath: m_LocalRotation.y
      value: 0
      objectReference: {fileID: 0}
    - target: {fileID: 1907986506050490983, guid: e98a186570977734eb5da477892cd317,
        type: 3}
      propertyPath: m_LocalRotation.z
      value: 0
      objectReference: {fileID: 0}
    - target: {fileID: 1907986506050490983, guid: e98a186570977734eb5da477892cd317,
        type: 3}
      propertyPath: m_LocalEulerAnglesHint.x
      value: 0
      objectReference: {fileID: 0}
    - target: {fileID: 1907986506050490983, guid: e98a186570977734eb5da477892cd317,
        type: 3}
      propertyPath: m_LocalEulerAnglesHint.y
      value: 0
      objectReference: {fileID: 0}
    - target: {fileID: 1907986506050490983, guid: e98a186570977734eb5da477892cd317,
        type: 3}
      propertyPath: m_LocalEulerAnglesHint.z
      value: 0
      objectReference: {fileID: 0}
    - target: {fileID: 1907986506050915911, guid: e98a186570977734eb5da477892cd317,
        type: 3}
      propertyPath: m_Name
      value: Brown
      objectReference: {fileID: 0}
    - target: {fileID: 1907986506050915911, guid: e98a186570977734eb5da477892cd317,
        type: 3}
      propertyPath: m_TagString
      value: BrownAiShape
      objectReference: {fileID: 0}
    m_RemovedComponents: []
  m_SourcePrefab: {fileID: 100100000, guid: e98a186570977734eb5da477892cd317, type: 3}
